,nombre,ranking,precio
0,Sombra del Agua,9.1,"1,035"
1,Hotel Mansion Del Valle,8.7,719
2,Hotel Diego de Mazariegos,8.8,746
3,Hotel Jovel,7.9,466
4,Hotel Grand Maria,9.1,890
5,Parador Margarita,9.2,640
6,Hotel Na Bolom,8.7,811
7,Uvence Arte + Hotel,8.8,"3,106"
8,Casa Lum,9.5,"1,981"
9,Hotel Casa Margarita,9.0,599
10,Plaza Magnolias,8.6,828
11,Casa Azabache,9.0,392
12,Hotel Bo,9.4,"3,870"
13,Jardines de Luz,7.6,492
14,Hotel Palace Inn SCLC,8.9,643
15,Collection O Casa de Familia,9.7,746
16,Casa del Alma Hotel Boutique & Spa,9.3,"2,565"
17,Sereno Art Hotel,9.1,"1,116"
18,La Tozi Galeria Hotel,9.0,705
19,Casa Santa Lucia,9.6,"1,843"
20,Hotel Boutique Amorini,9.1,"1,456"
21,Hoteles Villa Mercedes San Cristobal,8.6,
22,Plaza Gallery Hotel Boutique,8.5,"2,488"
23,Hotel Casa Mexicana,8.7,700
24,Las Escaleras by Inmense,8.9,"1,472"
25,Guayaba Inn Boutique Hotel,9.4,"1,640"
26,Hotel San Luis,8.9,422
27,Hotel Tepeyac,8.9,523
28,Hotel Dulce Luna,7.9,356
29,Posada del Abuelito (Hostel),9.5,295
30,Magnolias Boutique Suites & SPA,9.1,857
31,Hotel Casa Mia,8.1,460
32,La Abuelita Hostal,9.4,276
33,Hotel Helverica,8.5,891
34,Yox Hotel Boutique,9.0,650
35,Hotel Posada Primavera,9.1,757
36,Hotel Casavieja,8.6,"1,198"
37,Hotel Posada Las Casas,8.8,450
38,Mansion de los Angeles,8.8,613
39,Axkan Arte Hotel,8.7,439
40,Hotel & Cava La Parroquia,8.1,540
41,Hotel Ciudad Real Centro Historico,8.6,"1,105"
42,Cabañas Suites Sergia Torres,8.5,"1,175"
43,Casa Cafeólogo,9.5,"1,250"
44,Planet Hostel,8.7,313
45,Ocho Barrios,9.6,649
46,Hotel Amayal,8.7,382
47,Rossco Backpackers Hostel,8.7,405
48,Hotel San Marcos,8.7,"2,073"
49,kukulpan hostal,8.6,250
